[gd_resource type="ShaderMaterial" load_steps=5 format=3 uid="uid://duvvbidks3go6"]

[ext_resource type="Shader" path="res://shaders/ditherRender.gdshader" id="1_ic1nt"]
[ext_resource type="Texture2D" uid="uid://bn8jc0ixda83i" path="res://textures/environment_simple.png" id="2_x1ihf"]

[sub_resource type="Gradient" id="Gradient_fnxs7"]

[sub_resource type="GradientTexture1D" id="GradientTexture1D_d3aup"]
gradient = SubResource("Gradient_fnxs7")

[resource]
shader = ExtResource("1_ic1nt")
shader_parameter/resolution = 4
shader_parameter/ditherMapOffset = 0.0
shader_parameter/colored = false
shader_parameter/mapDimensions = Vector2(22, 1)
shader_parameter/mapResolution = Vector2(88, 4)
shader_parameter/asciiMap = ExtResource("2_x1ihf")
shader_parameter/ditherMap = SubResource("GradientTexture1D_d3aup")
