[gd_resource type="Curve" format=3 uid="uid://d31nw4vjqcp77"]

[resource]
bake_resolution = 300
_data = [Vector2(0, 0.410526), 0.0, 2.25356, 0, 0, Vector2(0.0113438, 0.431579), 0.0, 0.0, 0, 0, Vector2(0.0357766, 0.336842), 0.0, 0.0, 0, 0, Vector2(0.441536, 0.147368), 0.0, 0.0, 0, 0, Vector2(0.824607, 0.157895), 0.500585, 0.0, 0, 0]
point_count = 5
